%YAML 1.1
%TAG !u! tag:unity3d.com,2011:
--- !u!74 &7400000
AnimationClip:
  m_ObjectHideFlags: 0
  m_PrefabParentObject: {fileID: 0}
  m_PrefabInternal: {fileID: 0}
  m_Name: Death
  serializedVersion: 6
  m_Legacy: 0
  m_Compressed: 0
  m_UseHighQualityCurve: 1
  m_RotationCurves: []
  m_CompressedRotationCurves: []
  m_EulerCurves: []
  m_PositionCurves: []
  m_ScaleCurves: []
  m_FloatCurves: []
  m_PPtrCurves:
  - curve:
    - time: 0
      value: {fileID: 21300000, guid: 5a91587857978644cba4fd61ca1b08ce, type: 3}
    - time: 0.055555556
      value: {fileID: 21300000, guid: 0c013c3fd9e8fc04fac9f278108640e0, type: 3}
    - time: 0.11111111
      value: {fileID: 21300000, guid: ea78ad4f78079c740a219c51a4ba8f5f, type: 3}
    - time: 0.16666667
      value: {fileID: 21300000, guid: 753ce9b73839a224a8d83622de1481aa, type: 3}
    - time: 0.22222222
      value: {fileID: 21300000, guid: 46540b767ecfd6f459f08d59d75c2d03, type: 3}
    - time: 0.2777778
      value: {fileID: 21300000, guid: 2d548304b39f6e548be948c09f21f419, type: 3}
    - time: 0.33333334
      value: {fileID: 21300000, guid: dea151e2beeb70d41841ad4946ed435b, type: 3}
    - time: 0.3888889
      value: {fileID: 21300000, guid: 22d7c390205778f4da949821e057c24e, type: 3}
    - time: 0.44444445
      value: {fileID: 21300000, guid: fa06b15fdea60344aad60e7b076334ac, type: 3}
    - time: 0.5
      value: {fileID: 21300000, guid: 7831429bd24fcd343bd61415e219a4f1, type: 3}
    - time: 0.5555556
      value: {fileID: 21300000, guid: 64aaf5182830f09438ce03220581c15f, type: 3}
    - time: 0.6111111
      value: {fileID: 21300000, guid: 7e59543e1b1f8834e97802aadcbca6c8, type: 3}
    - time: 0.6666667
      value: {fileID: 21300000, guid: 78a6f47ec54cf8f4cb82cb13fb42b344, type: 3}
    - time: 0.7222222
      value: {fileID: 21300000, guid: 509d33cc7b783a14b8d64c691bc9d964, type: 3}
    - time: 0.7777778
      value: {fileID: 21300000, guid: e56bb7e09be479b4f90ca6e889115598, type: 3}
    attribute: m_Sprite
    path: 
    classID: 212
    script: {fileID: 0}
  m_SampleRate: 18
  m_WrapMode: 0
  m_Bounds:
    m_Center: {x: 0, y: 0, z: 0}
    m_Extent: {x: 0, y: 0, z: 0}
  m_ClipBindingConstant:
    genericBindings:
    - serializedVersion: 2
      path: 0
      attribute: 0
      script: {fileID: 0}
      typeID: 212
      customType: 23
      isPPtrCurve: 1
    pptrCurveMapping:
    - {fileID: 21300000, guid: 5a91587857978644cba4fd61ca1b08ce, type: 3}
    - {fileID: 21300000, guid: 0c013c3fd9e8fc04fac9f278108640e0, type: 3}
    - {fileID: 21300000, guid: ea78ad4f78079c740a219c51a4ba8f5f, type: 3}
    - {fileID: 21300000, guid: 753ce9b73839a224a8d83622de1481aa, type: 3}
    - {fileID: 21300000, guid: 46540b767ecfd6f459f08d59d75c2d03, type: 3}
    - {fileID: 21300000, guid: 2d548304b39f6e548be948c09f21f419, type: 3}
    - {fileID: 21300000, guid: dea151e2beeb70d41841ad4946ed435b, type: 3}
    - {fileID: 21300000, guid: 22d7c390205778f4da949821e057c24e, type: 3}
    - {fileID: 21300000, guid: fa06b15fdea60344aad60e7b076334ac, type: 3}
    - {fileID: 21300000, guid: 7831429bd24fcd343bd61415e219a4f1, type: 3}
    - {fileID: 21300000, guid: 64aaf5182830f09438ce03220581c15f, type: 3}
    - {fileID: 21300000, guid: 7e59543e1b1f8834e97802aadcbca6c8, type: 3}
    - {fileID: 21300000, guid: 78a6f47ec54cf8f4cb82cb13fb42b344, type: 3}
    - {fileID: 21300000, guid: 509d33cc7b783a14b8d64c691bc9d964, type: 3}
    - {fileID: 21300000, guid: e56bb7e09be479b4f90ca6e889115598, type: 3}
  m_AnimationClipSettings:
    serializedVersion: 2
    m_AdditiveReferencePoseClip: {fileID: 0}
    m_AdditiveReferencePoseTime: 0
    m_StartTime: 0
    m_StopTime: 0.8333334
    m_OrientationOffsetY: 0
    m_Level: 0
    m_CycleOffset: 0
    m_HasAdditiveReferencePose: 0
    m_LoopTime: 0
    m_LoopBlend: 0
    m_LoopBlendOrientation: 0
    m_LoopBlendPositionY: 0
    m_LoopBlendPositionXZ: 0
    m_KeepOriginalOrientation: 0
    m_KeepOriginalPositionY: 1
    m_KeepOriginalPositionXZ: 0
    m_HeightFromFeet: 0
    m_Mirror: 0
  m_EditorCurves: []
  m_EulerEditorCurves: []
  m_HasGenericRootTransform: 0
  m_HasMotionFloatCurves: 0
  m_GenerateMotionCurves: 0
  m_Events: []
