%YAML 1.1
%TAG !u! tag:unity3d.com,2011:
--- !u!74 &7400000
AnimationClip:
  m_ObjectHideFlags: 0
  m_PrefabParentObject: {fileID: 0}
  m_PrefabInternal: {fileID: 0}
  m_Name: JetBack Fly Shoot
  serializedVersion: 6
  m_Legacy: 0
  m_Compressed: 0
  m_UseHighQualityCurve: 1
  m_RotationCurves: []
  m_CompressedRotationCurves: []
  m_EulerCurves: []
  m_PositionCurves: []
  m_ScaleCurves: []
  m_FloatCurves: []
  m_PPtrCurves:
  - curve:
    - time: 0
      value: {fileID: 21300000, guid: 8ef5d0ee9fd1d774badd4560f492c5f1, type: 3}
    - time: 0.055555556
      value: {fileID: 21300000, guid: fc412100994e2c143850e779c5c6100c, type: 3}
    - time: 0.11111111
      value: {fileID: 21300000, guid: 625590fe6a1d16a4e9009f867d0dd7cc, type: 3}
    - time: 0.16666667
      value: {fileID: 21300000, guid: cc276f59fefeaf4468f58a15bffeefef, type: 3}
    - time: 0.22222222
      value: {fileID: 21300000, guid: 3e150f5027b584344be7c7b632222cca, type: 3}
    - time: 0.2777778
      value: {fileID: 21300000, guid: 6a934f7dbabeb374f926e5f5eace121c, type: 3}
    - time: 0.33333334
      value: {fileID: 21300000, guid: e40bf220cf9858d4a8fa11b765d454d8, type: 3}
    - time: 0.3888889
      value: {fileID: 21300000, guid: eb299cc47dbd735479c0e5f94979d35b, type: 3}
    - time: 0.44444445
      value: {fileID: 21300000, guid: 4d8e56f605e114c4c84e049f25ee9d61, type: 3}
    - time: 0.5
      value: {fileID: 21300000, guid: caf03a545aec34e42be7253e5e1b4d46, type: 3}
    - time: 0.5555556
      value: {fileID: 21300000, guid: 3336faeecb875b04c93c7439ee493c7a, type: 3}
    - time: 0.6111111
      value: {fileID: 21300000, guid: 188e3aa18d5d53345bc9e0c91a7aa6a9, type: 3}
    attribute: m_Sprite
    path: 
    classID: 212
    script: {fileID: 0}
  m_SampleRate: 18
  m_WrapMode: 0
  m_Bounds:
    m_Center: {x: 0, y: 0, z: 0}
    m_Extent: {x: 0, y: 0, z: 0}
  m_ClipBindingConstant:
    genericBindings:
    - serializedVersion: 2
      path: 0
      attribute: 0
      script: {fileID: 0}
      typeID: 212
      customType: 23
      isPPtrCurve: 1
    pptrCurveMapping:
    - {fileID: 21300000, guid: 8ef5d0ee9fd1d774badd4560f492c5f1, type: 3}
    - {fileID: 21300000, guid: fc412100994e2c143850e779c5c6100c, type: 3}
    - {fileID: 21300000, guid: 625590fe6a1d16a4e9009f867d0dd7cc, type: 3}
    - {fileID: 21300000, guid: cc276f59fefeaf4468f58a15bffeefef, type: 3}
    - {fileID: 21300000, guid: 3e150f5027b584344be7c7b632222cca, type: 3}
    - {fileID: 21300000, guid: 6a934f7dbabeb374f926e5f5eace121c, type: 3}
    - {fileID: 21300000, guid: e40bf220cf9858d4a8fa11b765d454d8, type: 3}
    - {fileID: 21300000, guid: eb299cc47dbd735479c0e5f94979d35b, type: 3}
    - {fileID: 21300000, guid: 4d8e56f605e114c4c84e049f25ee9d61, type: 3}
    - {fileID: 21300000, guid: caf03a545aec34e42be7253e5e1b4d46, type: 3}
    - {fileID: 21300000, guid: 3336faeecb875b04c93c7439ee493c7a, type: 3}
    - {fileID: 21300000, guid: 188e3aa18d5d53345bc9e0c91a7aa6a9, type: 3}
  m_AnimationClipSettings:
    serializedVersion: 2
    m_AdditiveReferencePoseClip: {fileID: 0}
    m_AdditiveReferencePoseTime: 0
    m_StartTime: 0
    m_StopTime: 0.6666667
    m_OrientationOffsetY: 0
    m_Level: 0
    m_CycleOffset: 0
    m_HasAdditiveReferencePose: 0
    m_LoopTime: 1
    m_LoopBlend: 0
    m_LoopBlendOrientation: 0
    m_LoopBlendPositionY: 0
    m_LoopBlendPositionXZ: 0
    m_KeepOriginalOrientation: 0
    m_KeepOriginalPositionY: 1
    m_KeepOriginalPositionXZ: 0
    m_HeightFromFeet: 0
    m_Mirror: 0
  m_EditorCurves: []
  m_EulerEditorCurves: []
  m_HasGenericRootTransform: 0
  m_HasMotionFloatCurves: 0
  m_GenerateMotionCurves: 0
  m_Events: []
