%YAML 1.1
%TAG !u! tag:unity3d.com,2011:
--- !u!74 &7400000
AnimationClip:
  m_ObjectHideFlags: 0
  m_PrefabParentObject: {fileID: 0}
  m_PrefabInternal: {fileID: 0}
  m_Name: Walk
  serializedVersion: 6
  m_Legacy: 0
  m_Compressed: 0
  m_UseHighQualityCurve: 1
  m_RotationCurves: []
  m_CompressedRotationCurves: []
  m_EulerCurves: []
  m_PositionCurves: []
  m_ScaleCurves: []
  m_FloatCurves: []
  m_PPtrCurves:
  - curve:
    - time: 0
      value: {fileID: 21300000, guid: 898d412075c6bb645bcd31553331376e, type: 3}
    - time: 0.055555556
      value: {fileID: 21300000, guid: 833b675604f49d84fba716f06964065f, type: 3}
    - time: 0.11111111
      value: {fileID: 21300000, guid: 6b86f93569a172f4aa949ff73d5771aa, type: 3}
    - time: 0.16666667
      value: {fileID: 21300000, guid: f7a57f63ee1e2b94083f5f7ad26acd41, type: 3}
    - time: 0.22222222
      value: {fileID: 21300000, guid: 0d38d37228d67bb43bd165c38e5f3191, type: 3}
    - time: 0.2777778
      value: {fileID: 21300000, guid: a0dcb7ce35675364b816a351f09b132c, type: 3}
    - time: 0.33333334
      value: {fileID: 21300000, guid: 424a2ea5074b2b74bb351519e42ea443, type: 3}
    - time: 0.3888889
      value: {fileID: 21300000, guid: 51225686cefa3be44addea38deec7887, type: 3}
    - time: 0.44444445
      value: {fileID: 21300000, guid: 01540d770150b5a4d9b686afc6261ec1, type: 3}
    - time: 0.5
      value: {fileID: 21300000, guid: 9f2c940202c4fc14fb9f3c8cc4926b3b, type: 3}
    - time: 0.5555556
      value: {fileID: 21300000, guid: 0ddf31651bc4c374ab9e5b028c269b65, type: 3}
    - time: 0.6111111
      value: {fileID: 21300000, guid: 9e5ecebc2affe374491d08bce9f2d83f, type: 3}
    - time: 0.6666667
      value: {fileID: 21300000, guid: d4d7283f12872a9438a167a9fdef19e2, type: 3}
    - time: 0.7222222
      value: {fileID: 21300000, guid: 2dddc85a213cfdf49a64e59f6d411ea2, type: 3}
    - time: 0.7777778
      value: {fileID: 21300000, guid: 79aa697d59fa9ed4e828016905b68dfe, type: 3}
    - time: 0.8333333
      value: {fileID: 21300000, guid: 479948ece5784d347a1b9982270de06b, type: 3}
    attribute: m_Sprite
    path: 
    classID: 212
    script: {fileID: 0}
  m_SampleRate: 18
  m_WrapMode: 0
  m_Bounds:
    m_Center: {x: 0, y: 0, z: 0}
    m_Extent: {x: 0, y: 0, z: 0}
  m_ClipBindingConstant:
    genericBindings:
    - serializedVersion: 2
      path: 0
      attribute: 0
      script: {fileID: 0}
      typeID: 212
      customType: 23
      isPPtrCurve: 1
    pptrCurveMapping:
    - {fileID: 21300000, guid: 898d412075c6bb645bcd31553331376e, type: 3}
    - {fileID: 21300000, guid: 833b675604f49d84fba716f06964065f, type: 3}
    - {fileID: 21300000, guid: 6b86f93569a172f4aa949ff73d5771aa, type: 3}
    - {fileID: 21300000, guid: f7a57f63ee1e2b94083f5f7ad26acd41, type: 3}
    - {fileID: 21300000, guid: 0d38d37228d67bb43bd165c38e5f3191, type: 3}
    - {fileID: 21300000, guid: a0dcb7ce35675364b816a351f09b132c, type: 3}
    - {fileID: 21300000, guid: 424a2ea5074b2b74bb351519e42ea443, type: 3}
    - {fileID: 21300000, guid: 51225686cefa3be44addea38deec7887, type: 3}
    - {fileID: 21300000, guid: 01540d770150b5a4d9b686afc6261ec1, type: 3}
    - {fileID: 21300000, guid: 9f2c940202c4fc14fb9f3c8cc4926b3b, type: 3}
    - {fileID: 21300000, guid: 0ddf31651bc4c374ab9e5b028c269b65, type: 3}
    - {fileID: 21300000, guid: 9e5ecebc2affe374491d08bce9f2d83f, type: 3}
    - {fileID: 21300000, guid: d4d7283f12872a9438a167a9fdef19e2, type: 3}
    - {fileID: 21300000, guid: 2dddc85a213cfdf49a64e59f6d411ea2, type: 3}
    - {fileID: 21300000, guid: 79aa697d59fa9ed4e828016905b68dfe, type: 3}
    - {fileID: 21300000, guid: 479948ece5784d347a1b9982270de06b, type: 3}
  m_AnimationClipSettings:
    serializedVersion: 2
    m_AdditiveReferencePoseClip: {fileID: 0}
    m_AdditiveReferencePoseTime: 0
    m_StartTime: 0
    m_StopTime: 0.8888889
    m_OrientationOffsetY: 0
    m_Level: 0
    m_CycleOffset: 0
    m_HasAdditiveReferencePose: 0
    m_LoopTime: 1
    m_LoopBlend: 0
    m_LoopBlendOrientation: 0
    m_LoopBlendPositionY: 0
    m_LoopBlendPositionXZ: 0
    m_KeepOriginalOrientation: 0
    m_KeepOriginalPositionY: 1
    m_KeepOriginalPositionXZ: 0
    m_HeightFromFeet: 0
    m_Mirror: 0
  m_EditorCurves: []
  m_EulerEditorCurves: []
  m_HasGenericRootTransform: 0
  m_HasMotionFloatCurves: 0
  m_GenerateMotionCurves: 0
  m_Events: []
